Machine learning with tidymodels – 7 - Feature selection
…
knn_fit <- fit_best(knn_res, metric = "brier_class")
filter_info <-
    knn_fit |>
    extract_recipe() |>
    tidy(id = "filter")

filter_info
#> # A tibble: 30 × 4
#>    terms        removed      score id    
#>    <chr>        <lgl>        <dbl> <chr> 
#>  1 predictor_01 TRUE     0.00152   filter
#>  2 predictor_02 TRUE     0.00170   filter
#>  3 predictor_03 TRUE    -0.0000460 filter
#>  4 predictor_04 TRUE     0.000968  filter
#>  5 predictor_05 TRUE    -0.0000626 filter
#>  6 predictor_06 TRUE     0.000126  filter
#>  7 predictor_07 TRUE     0.000779  filter
#>  8 predictor_08 TRUE     0.00160   filter
#>  9 predictor_09 TRUE     0.00218   filter
#> 10 predictor_10 TRUE    -0.000302  filter
#> # ℹ 20 more rows
…
