Machine learning with tidymodels – 5 - Feature engineering: splines, target encoding and dates
…
Apply B-splines to some variables using step_spline_b()

−+

03:00

Factors with many categories

hotel_train |>
  count(country)
#> # A tibble: 88 × 2
#>    country     n
#>    <fct>   <int>
#>  1 ago         7
#>  2 and         1
#>  3 are         3
#>  4 arg        14
#>  5 aus        31
#>  6 aut        76
#>  7 aze         2
#>  8 bel       184
#>  9 bgr         2
#> 10 bhs         1
#> # ℹ 78 more rows

hotel_train |>
  count(company)
#> # A tibble: 157 × 2
#>    company                 n
#>    <fct>               <int>
#>  1 abdou_llc               2
#>  2 afework_llc             5
#>  3 alston_pbc              3
#>  4 battle_llc             23
#>  5 bennett_and_company     3
#>  6 berhanu_pbc            53
#>  7 biggers_llc             4
#>  8 blasingime_llc          1
#>  9 boddy_llc              16
#> 10 boles_pbc               3
#> # ℹ 147 more rows

hotel_train |>
  count(agent)
#> # A tibble: 119 × 2
#>    agent                 n
#>    <fct>             <int>
#>  1 aaron_marquez         2
#>  2 alexander_drake    1117
#>  3 allen_her             1
#>  4 anas_el_bashir        1
#>  5 araseli_billy         1
#>  6 arhab_al_islam        7
#>  7 audray_tucker        38
#>  8 bernice_baltierra    35
#>  9 betzy_rodriguez      66
#> 10 brayan_guerrero       2
#> # ℹ 109 more rows
…
You have a numeric outcome and a categorical predictor. And you want to transform each value of the categorical predictor into a value that best represents the outcome?

We calculate the mean of the outcome within each level of the predictor, and use that as the new value.

Caution

Don’t do just this! We are building up the method one thing at a time. Unregularized target encoding is really prone to overfitting.

hotel_train |>
  summarise(
    mean = mean(avg_price_per_room),
    .by = agent
  )
#> # A tibble: 119 × 2
#>    agent                 mean
#>    <fct>                <dbl>
#>  1 alexander_drake      144. 
#>  2 kaylae_maxedon        62.5
#>  3 michael_mcdole        60.9
#>  4 devin_rivera_borrego 126. 
#>  5 james_richards        78.6
#>  6 estela_bonilla        41.9
#>  7 charles_najera       109. 
#>  8 reema_el_tamer       118. 
#>  9 jawhara_al_azad       90.1
#> 10 not_applicable        84.1
#> # ℹ 109 more rows

Target encoding handling unseen levels

Caution

Don’t look at the testing data set. This is done for educational purposes.

hotel_train |>
  count(agent, .drop = FALSE)
#> # A tibble: 174 × 2
#>    agent                   n
#>    <fct>               <int>
#>  1 aaron_marquez           2
#>  2 aayaat_al_farran        0
#>  3 alanah_cook             0
#>  4 alexander_drake      1117
#>  5 allen_her               1
#>  6 amirah_christian        0
#>  7 anas_el_bashir          1
#>  8 anna_beltran_moreno     0
#>  9 anna_choi               0
#> 10 araseli_billy           1
#> # ℹ 164 more rows

hotel_test |>
  count(agent, .drop = FALSE)
#> # A tibble: 174 × 2
#>    agent                   n
#>    <fct>               <int>
#>  1 aaron_marquez           1
#>  2 aayaat_al_farran        0
#>  3 alanah_cook             0
#>  4 alexander_drake       367
#>  5 allen_her               1
#>  6 amirah_christian        0
#>  7 anas_el_bashir          0
#>  8 anna_beltran_moreno     0
#>  9 anna_choi               0
#> 10 araseli_billy           1
#> # ℹ 164 more rows

Target encoding handling unseen levels

Calculate the global mean of the outcome and use it for cases that aren’t seen in the training data set.

mean(hotel_train$avg_price_per_room)
#> [1] 104.6039

hotel_train |>
  summarise(
    mean = mean(avg_price_per_room),
    .by = agent
  )
#> # A tibble: 119 × 2
#>    agent                 mean
#>    <fct>                <dbl>
#>  1 alexander_drake      144. 
#>  2 kaylae_maxedon        62.5
#>  3 michael_mcdole        60.9
#>  4 devin_rivera_borrego 126. 
#>  5 james_richards        78.6
#>  6 estela_bonilla        41.9
#>  7 charles_najera       109. 
#>  8 reema_el_tamer       118. 
#>  9 jawhara_al_azad       90.1
#> 10 not_applicable        84.1
#> # ℹ 109 more rows

How do we handle low counts?

Some of the levels have very low counts. We can’t have the same confidence in those means as the means calculated on high counts.

We use the global mean to account for 0 occurrences. Let us adjust the calculated mean by the global mean depending on the counts.

hotel_train |>
  summarise(
    mean = mean(avg_price_per_room),
    n = n(),
    .by = agent
  ) |>
  arrange(agent)
#> # A tibble: 119 × 3
#>    agent              mean     n
#>    <fct>             <dbl> <int>
#>  1 aaron_marquez     118.      2
#>  2 alexander_drake   144.   1117
#>  3 allen_her          65       1
#>  4 anas_el_bashir     99       1
#>  5 araseli_billy      40       1
#>  6 arhab_al_islam     35       7
#>  7 audray_tucker      76.0    38
#>  8 bernice_baltierra  71.3    35
#>  9 betzy_rodriguez    84.0    66
#> 10 brayan_guerrero    37.5     2
#> # ℹ 109 more rows
…
recipe(avg_price_per_room ~ ., data = hotel_train) |>
  step_lencode(
    agent, country, company,
    outcome = vars("avg_price_per_room"), smooth = TRUE,
  ) |>
  prep() |>
  bake(NULL) |>
  select(agent, country, company)
#> # A tibble: 11,551 × 3
#>    agent country company
#>    <dbl>   <dbl>   <dbl>
#>  1 144.    108.     109.
#>  2  77.2    83.4    109.
#>  3  61.5    99.9    109.
#>  4 126.    108.     109.
#>  5 144.    108.     109.
#>  6  79.9    73.8    109.
#>  7 126.     99.9    109.
#>  8  69.8   108.     109.
#>  9 126.     99.9    109.
#> 10 144.    108.     109.
#> # ℹ 11,541 more rows
…
