Machine learning with tidymodels – 5 - Feature engineering: dummies and embeddings
…
library(embed)
set.seed(1234)

recipe(mpg ~ ., data = mtcars) |>
  step_umap(all_numeric_predictors()) |>
  prep() |>
  bake(NULL)
#> # A tibble: 32 × 3
#>      mpg  UMAP1 UMAP2
#>    <dbl>  <dbl> <dbl>
#>  1  21    1.50   2.26
#>  2  21    1.26   2.02
#>  3  22.8  2.17   4.19
#>  4  21.4 -1.38  -1.67
#>  5  18.7 -2.67  -2.66
#>  6  18.1 -0.759 -1.57
#>  7  14.3 -3.19  -3.37
#>  8  24.4  1.31   3.91
#>  9  22.8  2.06   2.46
#> 10  19.2  0.876  2.31
#> # ℹ 22 more rows
…
library(embed)
set.seed(1234)

recipe(mpg ~ ., data = mtcars) |>
  step_isomap(all_numeric_predictors(), neighbors = 10) |>
  prep() |>
  bake(NULL)
#> # A tibble: 32 × 6
#>      mpg Isomap1 Isomap2 Isomap3 Isomap4 Isomap5
#>    <dbl>   <dbl>   <dbl>   <dbl>   <dbl>   <dbl>
#>  1  21    -98.5     35.6    35.3   137.    105. 
#>  2  21    -98.5     35.6    35.1   137.    104. 
#>  3  22.8 -161.      48.1    20.4   160.    129. 
#>  4  21.4    8.55    14.6    37.2    86.8   125. 
#>  5  18.7  136.      28.5    35.7   -30.8   102. 
#>  6  18.1  -27.7     21.7    38.3   104.    116. 
#>  7  14.3  207.     -16.5    34.6   -55.5   158. 
#>  8  24.4 -147.      44.2    23.7   182.     88.4
#>  9  22.8 -125.      41.1    18.1   151.    118. 
#> 10  19.2  -91.6     33.7    48.6   135.    101. 
#> # ℹ 22 more rows
…
